<svg xmlns="http://www.w3.org/2000/svg" xmlns:xlink="http://www.w3.org/1999/xlink" viewBox="0 0 12.5 19.2">
    <path d="M12,18.8c0.7-0.7,0.5-1.6-0.2-2.3L6.2,9.6l5.7-6.8c0.7-0.7,0.9-1.6,0.2-2.3c-0.7-0.7-1.6-0.5-2.3,0.2L0.4,8.8 c0,0-0.4,0.4-0.4,0.8c0,0.5,0.4,0.8,0.4,0.8l9.3,8.1C10.4,19.3,11.3,19.5,12,18.8z"/>
</svg>
