<svg viewBox="0 0 40 32" fill="none" xmlns="http://www.w3.org/2000/svg">
    <rect width="40" height="32" rx="2" fill="currentColor"/>
    <rect x="2" y="2" width="36" height="28" stroke="white" stroke-dasharray="4 2"/>
    <path d="M31.7393 10.3764L15.081 20.0932L14.101 18.4131L17.1345 16.6436L17.5753 14.9687L27.8399 8.98141C29.7315 7.87801 31.2277 9.45163 31.7393 10.3764Z" fill="white"/>
    <path fill-rule="evenodd" clip-rule="evenodd" d="M15.6929 18.652C14.5771 16.739 12.1218 16.0928 10.2088 17.2087C8.29589 18.3245 7.6497 20.7798 8.76552 22.6927C9.88134 24.6057 12.3366 25.2519 14.2496 24.136C16.1625 23.0202 16.8087 20.5649 15.6929 18.652ZM14.2347 19.5028C13.5886 18.3951 12.1668 18.0209 11.0591 18.667C9.95145 19.3131 9.57727 20.7349 10.2234 21.8426C10.8695 22.9502 12.2912 23.3244 13.3989 22.6783C14.5066 22.0322 14.8808 20.6105 14.2347 19.5028Z" fill="white"/>
    <path d="M31.7393 21.91L15.081 12.1932L14.101 13.8733L17.1345 15.6428L17.5753 17.3176L27.8399 23.305C29.7315 24.4084 31.2277 22.8347 31.7393 21.91Z" fill="white"/>
    <path fill-rule="evenodd" clip-rule="evenodd" d="M15.6929 13.6344C14.5771 15.5473 12.1218 16.1935 10.2088 15.0777C8.29589 13.9619 7.6497 11.5066 8.76552 9.59366C9.88134 7.68072 12.3366 7.03453 14.2496 8.15035C16.1625 9.26617 16.8087 11.7215 15.6929 13.6344ZM14.2347 12.7836C13.5886 13.8913 12.1668 14.2655 11.0591 13.6194C9.95145 12.9732 9.57727 11.5515 10.2234 10.4438C10.8695 9.33613 12.2912 8.96196 13.3989 9.60807C14.5066 10.2542 14.8808 11.6759 14.2347 12.7836Z" fill="white"/>
</svg>
