<svg 
 xmlns="http://www.w3.org/2000/svg"
 xmlns:xlink="http://www.w3.org/1999/xlink"
 viewBox="0 0 30 26">
<path d="M29.291,1.641 L26.411,1.641 C25.654,1.641 24.994,2.088 24.730,2.780 L18.802,18.407 C18.558,19.049 18.124,19.582 17.585,19.952 C18.496,20.533 19.106,21.550 19.106,22.712 C19.106,24.519 17.644,25.987 15.847,25.987 C14.049,25.987 12.588,24.519 12.588,22.712 C12.588,21.864 12.919,21.097 13.447,20.514 L5.935,20.514 C6.300,21.044 6.516,21.683 6.516,22.374 C6.516,24.180 5.054,25.649 3.257,25.649 C1.460,25.649 -0.002,24.180 -0.002,22.374 C-0.002,20.743 1.194,19.397 2.749,19.150 C2.827,19.120 2.910,19.099 2.999,19.099 L3.248,19.099 C3.251,19.099 3.254,19.098 3.257,19.098 C3.260,19.098 3.263,19.099 3.266,19.099 L15.805,19.099 C16.538,19.099 17.214,18.618 17.486,17.902 L18.285,15.796 L3.496,15.796 C2.694,15.796 2.075,15.124 1.838,14.499 L0.719,11.582 C0.579,11.217 0.759,10.807 1.122,10.666 C1.486,10.528 1.893,10.707 2.033,11.072 L3.154,13.993 C3.243,14.230 3.438,14.380 3.496,14.381 L18.822,14.381 L21.507,7.303 L11.450,7.303 C11.061,7.303 10.745,6.986 10.745,6.596 C10.745,6.205 11.061,5.888 11.450,5.888 L22.044,5.888 L23.414,2.275 C23.889,1.030 25.064,0.226 26.411,0.226 L29.291,0.226 C29.679,0.226 29.995,0.543 29.995,0.934 C29.995,1.324 29.679,1.641 29.291,1.641 ZM3.266,20.514 L3.248,20.514 C2.232,20.520 1.406,21.352 1.406,22.374 C1.406,23.400 2.237,24.234 3.257,24.234 C4.278,24.234 5.108,23.400 5.108,22.374 C5.108,21.352 4.283,20.520 3.266,20.514 ZM15.847,20.853 C14.826,20.853 13.996,21.687 13.996,22.712 C13.996,23.738 14.826,24.572 15.847,24.572 C16.867,24.572 17.697,23.738 17.697,22.712 C17.697,21.687 16.867,20.853 15.847,20.853 ZM11.162,0.901 L11.144,0.929 C11.129,0.957 11.111,0.983 11.092,1.008 L5.389,9.641 C5.376,9.663 5.362,9.683 5.347,9.704 L5.344,9.709 L5.343,9.709 C5.206,9.893 4.987,10.013 4.740,10.013 C4.493,10.013 4.274,9.893 4.136,9.709 L0.781,5.986 L0.781,5.985 C0.666,5.852 0.596,5.679 0.596,5.489 C0.596,5.070 0.934,4.730 1.351,4.730 C1.510,4.730 1.657,4.780 1.779,4.864 L1.779,4.864 L1.783,4.867 C1.824,4.896 1.863,4.930 1.898,4.967 L4.565,7.279 L10.091,0.235 C10.206,0.084 10.387,-0.013 10.592,-0.013 C10.940,-0.013 11.223,0.271 11.223,0.621 C11.223,0.721 11.200,0.815 11.159,0.899 L11.162,0.901 Z"/>
</svg>
